* **********************************
* NETWORK   (KNETWK): HV
* STATION    (KSTNM): UWE
* LOCATION   (KHOLE): 
* CHANNEL   (KCMPNM): HHZ
* CREATED           : 2020-02-13T04:23:28
* START             : 2009-01-01T01:00:00
* END               : 
* DESCRIPTION       : 
* LATITUDE          : 19.420973
* LONGITUDE         : -155.291168
* ELEVATION         : 1231.0
* DEPTH             : 0.0
* DIP               : 0.0
* AZIMUTH           : 0.0
* SAMPLE RATE       : 100.0
* INPUT UNIT        : M
* OUTPUT UNIT       : COUNTS
* INSTTYPE          : STS2_120S_1500_PT=UWE_STS2=Gen=Q330SR_AB_1_1_100=
* INSTGAIN          : 1.500000e+03 (M)
* COMMENT           : 
* SENSITIVITY       : 6.291450e+08 (M)
* A0                : 1.359230e+13
* **********************************
ZEROS	7
	+0.000000e+00	+0.000000e+00	
	+0.000000e+00	+0.000000e+00	
	+0.000000e+00	+0.000000e+00	
	-1.515000e+01	+0.000000e+00	
	-1.766000e+02	+0.000000e+00	
	-4.631000e+02	-4.305000e+02	
	-4.631000e+02	+4.305000e+02	
POLES	10
	-3.070000e-02	-3.070000e-02	
	-3.070000e-02	+3.070000e-02	
	-1.564000e+01	+0.000000e+00	
	-9.734000e+01	-4.007000e+02	
	-9.734000e+01	+4.007000e+02	
	-3.748000e+02	+0.000000e+00	
	-5.203000e+02	+0.000000e+00	
	-1.053000e+03	-1.005000e+03	
	-1.053000e+03	+1.005000e+03	
	-1.330000e+04	+0.000000e+00	
CONSTANT	8.551528e+21




